xml_tag	uri	extension	type	further_information (definition/comment)

language http://lexvo.org/id/iso639-1/	2_letters_language_code	Class?	"we also provide Lexvo URIs based on 2-letter ISO 639-1 codes, so you can simply append any valid 2-letter ISO 639-1 language code (e.g. "en", "fr") to "http://lexvo.org/id/iso639-1/" to obtain a URI " -> although standard is ISO 639-3 (mapping file available)

file_id	http://purl.org/dc/terms/	identifier	Property "In TED XML, attribute of <file> -> Warn: used also in <speaker>""

url	http://www.w3.org/ns/dcat#	accessURL	Property "A landing page, feed, SPARQL endpoint or other type of resource that gives access to the distribution of the dataset"

pagesize 	-> figure out what it means

dtime 	http://purl.org/dc/terms/ issued	Property	"Date of formal issuance (e.g., publication) of the resource. use = rdfs:Literal encoded using the relevant ISO 8601 Date and Time compliant string "
dtime	http://purl.org/dc/elements/1.1/	date	Property	"A point or period of time associated with an event in the lifecycle of the resource."
dtime	https://schema.org/	dateCreated	Property	"used_on_type CreativeWork | A combination of date and time of day in the form [-]CCYY-MM-DDThh:mm:ss[Z|(+|-)hh:mm] (see Chapter 5.4 of ISO 8601)."-> XML example "Thu Jan 28 17:14:06 CET 2016" 

content-type 	http://purl.org/dc/terms/	content-type	Property	"The nature or genre of the resource."

encoding 	http://www.isocat.org/datcat/	DC-2564	Property	"use with String encodingcode(eg.UTF-8)""

keywords	http://purl.org/dc/terms/	subject	Property	"The topic of the resource."/"Typically, the subject will be represented using keywords, key phrases, or classification codes. Recommended best practice is to use a controlled vocabulary."
keywords	https://schema.org/	keywords	Property	"used_on_type CreativeWork | Keywords or tags used to describe this content. Multiple entries in a keywords list are typically delimited by commas." CreativeWork

videourl 	https://schema.org/ contentUrl	Property "used_on_type MediaObject | Actual bytes of the media object, for example the image file or video file."

videopath 	?

talkid	http://purl.org/dc/terms/	identifier	Property	"An unambiguous reference to the resource within a given context."
talkid	https://schema.org/	identifier	Property	"used_on_type Thing	| The identifier property represents any kind of identifier for any kind of Thing, such as ISBNs, GTIN codes, UUIDs etc. Schema.org provides dedicated properties for representing many of these, either as textual strings or as URL (URI) links. See background notes for more details."
talkid	https://schema.org/	productID	Property	"used_on_type Product | The product identifier, such as ISBN. For example: meta itemprop="productID" content="isbn:123-456-789"."


title 	http://purl.org/dc/terms/ 	title	Property	"A name given to the resource."
title	https://schema.org/	name	Property	"used_on_type Thing | The name of the item. (remark: describes "Thing" and "CreativeWork" is a "Thing") (!there exists "title" in schema.org, but it seems to refers to the title of a person (academic title) because it is used for "JobPosting")


description	http://purl.org/dc/terms/	description	Property	"An account of the resource."/"Description may include but is not limited to: an abstract, a table of contents, a graphical representation, or a free-text account of the resource." 
description	http://purl.org/dc/terms/	abstract	Property	"A summary of the resource." (refines the property description) 
description	https://schema.org/	description	Property	"used_on_type Thing	| A description of the item." (remark: describes "Thing" and "CreativeWork" is a "Thing")

image	http://purl.org/dc/dcmitype/	Image	Class	"A visual representation other than text."/"Examples include images and photographs of physical objects, paintings, prints, drawings, other images and graphics, animations and moving pictures, film, diagrams, maps, musical notation. Note that Image may include both electronic and physical representations."
image	https://schema.org/	image	Property	"used_on_type Thing | An image of the item. This can be a URL or a fully described ImageObject."


speaker	http://purl.org/dc/terms/	Agent	Class	"A resource that acts or has the power to act."/"Examples of Agent include person, organization, and software agent."
speaker	https://schema.org/	author	Property	"used_on_type CreativeWork | The author of this content or rating."
speaker	https://schema.org/	performer	Property	"used_on_type Event | A performer at the event—for example, a presenter, musician, musical group or actor."

translator	https://schema.org/	translator	Property	CreativeWork	"Organization or person who adapts a creative work to different languages"

href	https://schema.org/	url  Property	"<url>"

reviewer	https://schema.org/	reviewedBy	Property	WebPage

date	https://schema.org/	datePublished	Property	CreativeWork	"Date of first broadcast/publication."
date 	https://schema.org/dateCreated		Property	CreativeWork "must be a date value in ISO 8601 date format or a combination of date and time of day in the form [-]CCYY-MM-DDThh:mm:ss[Z|(+|-)hh:mm] (see Chapter 5.4 of ISO 8601)."
date	http://purl.org/dc/terms/	date	Property	"A point or period of time associated with an event in the lifecycle of the resource."

wordnum 	?

charnum 	?

content 	http://persistence.uni-leipzig.org/nlp2rdf/ontologies/nif-core#	isString	Property	"use =  nif:isString """The Fulton County Grand Jury said Friday an investigation of "
content http://persistence.uni-leipzig.org/nlp2rdf/ontologies/nif-core#	Context	Class	"is a subclass of the nif:String class. The Context represents the whole document. It serves as a reference point to all other substrings. It must have a nif:isString property which contains the string content of the document"

transcription_seekvideo http://persistence.uni-leipzig.org/nlp2rdf/ontologies/nif-core#	Context	Class	"is a subclass of the nif:String class. The Context represents the whole document. It serves as a reference point to all other substrings. It must have a nif:isString property which contains the string content of the document
transcription_seekvideo https://schema.org/VideoObject#	transcript	Property	"the transcript of that object.

seekvideo id	http://persistence.uni-leipzig.org/nlp2rdf/ontologies/nif-core#	beginIndex	Property	eg. nif:beginIndex "0"^^xsd:int ;"
